{
    "users": [
      {
        "id": "17e1",
        "username": "Mari2",
        "password": "$2a$10$X.jK/2ZxNDRpVZk6lV3tneSmclPEcr6M6KmW8aLxLS0TImMEW0xBW"
      },
      {
        "id": "23e0",
        "username": "thomas",
        "password": "$2a$10$234GAzqyokxz4HAkco.JMe4twHs1QF4HQDHeilGCfUSEeyUYwQ2Lq"
      },
      {
        "id": "0c97",
        "username": "Mari",
        "password": "$2a$10$cmRWz678ZK8mo/y4Bb2nRuGF9e9BWaVHaJ1x4ZIjjVQ3g53IkNUV6"
      },
      {
        "id": "user3_id",
        "username": "user3",
        "password": "$2a$10$7Fwwz2v1hvptfR/B9G/zkerITjL9LOKgG1oiduiCKqIpPT/OIb/Ay"
      },
      {
        "id": "user2_id",
        "username": "user2",
        "password": "$2a$10$.v9K04/y5GVhNK.gk3hHZeuGfVQJQx0/hFOJVA7nIUDuSSOx/JN9e"
      },
      {
        "id": "user1_id",
        "username": "user1",
        "password": "$2a$10$dJHLH1u85JHU.jgHH3Ic/eBnI/p4ThdfJc4P6b5lb6uG6E.4Ti5c."
      },
      {
        "id": "2e85",
        "username": "testuser",
        "password": "$2a$10$WSEdJMwMmVleYMnJ97KjV.bMP1ScpFqtKt1E5bbETtZqdHzh5ptzS"
      },
      {
        "id": "6541",
        "username": "testuser1",
        "password": "$2a$10$xOz/l9OwmiLhBnOIOBPVguaHoObEODf1HuB/ow7d59.HI31FQvSR6"
      },
      {
        "id": "f0fa",
        "username": "testuser2",
        "password": "$2a$10$wd574yicodLnozywNWLXhO5CzX58Wiszk1b4FvhB60hChj1Q6QTS2"
      }
    ],
    "listitems": [
      {
        "id": "2",
        "title": "Make support for multiple users",
        "content": "Make support for multiple users",
        "complete": false,
        "userid": "user1_id"
      },
      {
        "id": "3",
        "title": "Make list completion storable",
        "content": "Make list completion storable",
        "complete": true,
        "userid": "user1_id"
      },
      {
        "id": "4",
        "title": "Go home with car again and have fun",
        "content": "Go home with car again and have fun",
        "complete": true,
        "userid": "user1_id"
      },
      {
        "id": "6",
        "title": "Yet another Item modified",
        "content": "Yet another Item modified",
        "complete": true,
        "userid": "user1_id"
      },
      {
        "id": "7",
        "title": "Finne sofa",
        "content": "Finne sofa",
        "complete": true,
        "userid": "user1_id"
      },
      {
        "id": "8",
        "title": "Make another point",
        "content": "Make another point",
        "complete": true,
        "userid": "user1_id"
      },
      {
        "id": "4933",
        "title": "Order Sofa",
        "content": "Order Sofa",
        "complete": false,
        "userid": "user1_id"
      },
      {
        "id": "a44f",
        "title": "Take a bike ride to Sofa Company",
        "content": "Take a bike ride to Sofa Company",
        "complete": true,
        "userid": "user1_id"
      },
      {
        "id": "49d6",
        "title": "Continue Fixing code",
        "content": "Continue Fixing code",
        "complete": true,
        "userid": "user1_id"
      },
      {
        "id": "a2d8",
        "title": "dra til Indonesia",
        "content": "dra til Indonesia",
        "complete": false,
        "userid": "user1_id"
      },
      {
        "id": "5e76",
        "title": "Kjøpe en gave til Mari",
        "content": "Kjøpe en gave til Mari",
        "complete": false,
        "userid": "user1_id"
      },
      {
        "id": "fb51",
        "title": "gi massasje til Mari",
        "content": "gi massasje til Mari",
        "complete": false,
        "userid": "user1_id"
      },
      {
        "title": "Create new pages again and again and again",
        "content": "Write something different here",
        "complete": true,
        "userid": "23e0",
        "id": "EcsjAL0"
      },
      {
        "title": "Remember to refactor in a wise manner",
        "content": "Remember to refactor in a wise manner",
        "complete": true,
        "userid": "23e0",
        "id": "jq3g-qg"
      },
      {
        "title": "Implement application",
        "content": "Implement application",
        "complete": true,
        "userid": "23e0",
        "id": "9a6nOEL"
      },
      {
        "title": "Create a single page app with multiple pages",
        "content": "Custom content for the win",
        "complete": true,
        "userid": "23e0",
        "id": "BDrGa8o"
      },
      {
        "title": "Create a new Page for editing an item",
        "content": "Create a new Page for editing an item",
        "complete": true,
        "userid": "23e0",
        "id": "3Oz7I8b"
      },
      {
        "title": "Create support for title and content",
        "content": "Create support for title and content",
        "complete": true,
        "userid": "23e0",
        "id": "rrylQ0e"
      },
      {
        "title": "Add support for viewing and editing content in a separate window",
        "content": "Add support for viewing and editing content in a separate window",
        "complete": true,
        "userid": "23e0",
        "id": "1MuzSjP"
      },
      {
        "title": "danse på taket",
        "content": "",
        "complete": false,
        "userid": "Trine",
        "id": "ug-3g-7"
      },
      {
        "title": "Lufte hundene",
        "content": "Remember leash",
        "complete": false,
        "userid": "Trine",
        "id": "K6NsOxl"
      },
      {
        "title": "Include calendar",
        "content": "",
        "complete": false,
        "userid": "Trine",
        "id": "_tStmq-"
      },
      {
        "id": "a1d8",
        "title": "Make a new complex item",
        "content": "Make it so the username is included",
        "complete": true,
        "userid": "23e0"
      },
      {
        "id": "82ab",
        "title": "Create a login page",
        "content": "The login page should be the default page and should hold the current user",
        "complete": true,
        "userid": "23e0"
      },
      {
        "id": "c41f",
        "title": "Make the logout button work",
        "content": "Stuff is remembered, but I no longer can log out",
        "complete": true,
        "userid": "23e0"
      },
      {
        "id": "278d",
        "title": "thomas",
        "content": "Bøsj",
        "complete": false,
        "userid": "0c97"
      },
      {
        "id": "3328",
        "title": "holj",
        "content": "",
        "complete": false,
        "userid": "0c97"
      },
      {
        "id": "e464",
        "title": "yuhgkyu",
        "content": "",
        "complete": false,
        "userid": "0c97"
      },
      {
        "id": "8061",
        "title": "fghdfgh",
        "content": "",
        "complete": false,
        "userid": "0c97"
      },
      {
        "id": "6973",
        "title": "cvgfgcxfgh",
        "content": "",
        "complete": false,
        "userid": "0c97"
      },
      {
        "id": "ee47",
        "title": "fghjxcchnjc",
        "content": "",
        "complete": true,
        "userid": "0c97"
      },
      {
        "id": "3fa7",
        "title": "dfghdfhg",
        "content": "",
        "complete": true,
        "userid": "0c97"
      },
      {
        "id": "88d9",
        "title": "hvcnjvc",
        "content": "",
        "complete": true,
        "userid": "0c97"
      },
      {
        "id": "bdde",
        "title": "fguufgufgufugfug",
        "content": "",
        "complete": true,
        "userid": "0c97"
      },
      {
        "id": "ee48",
        "title": "Make it work again",
        "content": "include som content",
        "complete": false,
        "userid": "kant"
      },
      {
        "id": "3587",
        "title": "Thomas",
        "content": "bæsj",
        "complete": true,
        "userid": "0c97"
      },
      {
        "id": "b34b",
        "title": "Expand user functionality to include password",
        "content": "Gotto expand the user class",
        "complete": true,
        "userid": "23e0"
      },
      {
        "id": "5975",
        "title": "Make it possible to create a new user",
        "content": "Have to check is user exists",
        "complete": true,
        "userid": "23e0"
      },
      {
        "id": "a98d",
        "title": "Make it possible to nest items to make a tree structure using a binary tree",
        "content": "Trees are always fun",
        "complete": false,
        "userid": "23e0"
      },
      {
        "id": "20d5",
        "title": "Make it possible to click and view the items",
        "content": "Its probably nice to be able to view the content in the main window",
        "complete": false,
        "userid": "23e0"
      },
      {
        "id": "3547",
        "title": "If the user token is lost, make sure to logout",
        "content": "Now we can write the listitems url and successfully navigate. This should be rerouted to login if there is no user logged in",
        "complete": true,
        "userid": "23e0"
      },
      {
        "id": "c362",
        "title": "Thomas",
        "content": "Thomas",
        "complete": true,
        "userid": "17e1"
      },
      {
        "id": "e8ed",
        "title": "Lilly",
        "content": "Melk",
        "complete": true,
        "userid": "17e1"
      },
      {
        "id": "48d5",
        "title": "Remove not needed code",
        "content": "Remove quick create item",
        "complete": false,
        "userid": "23e0"
      },
      {
        "id": "74df",
        "title": "Implement dates on items for happy time",
        "content": "Show when they are created, and more",
        "complete": false,
        "userid": "23e0"
      },
      {
        "id": "dd84",
        "title": "Complete containerizations",
        "content": "",
        "complete": false,
        "userid": "23e0"
      }
    ]
  }